hw1/hw_circuit/simulation/qsim/hw_circuit.msim.vcd
$comment
	File created using the following command:
		vcd file hw_circuit.msim.vcd -direction
$end
$date
	Tue Mar 21 17:16:27 2023
$end
$version
	ModelSim Version 10.1d
$end
$timescale
	1ps
$end
$scope module VD2_20_vlg_vec_tst $end
$var reg 1 ! START $end
$var wire 1 " OUT2 $end
$var wire 1 # OUT4 $end
$var wire 1 $ OUT8 $end
$var wire 1 % OUT16 $end
$var wire 1 & OUT32 $end
$var wire 1 ' OUT64 $end
$var wire 1 ( OUT128 $end
$var wire 1 ) OUT256 $end
$var wire 1 * OUT512 $end
$var wire 1 + OUT1024 $end
$var wire 1 , OUT2048 $end
$var wire 1 - OUT4096 $end
$var wire 1 . OUT8192 $end
$var wire 1 / OUT16384 $end
$var wire 1 0 OUT32768 $end
$var wire 1 1 OUT65536 $end
$var wire 1 2 OUT131072 $end
$var wire 1 3 OUT262144 $end
$var wire 1 4 OUT524288 $end
$var wire 1 5 OUT1048576 $end
$var wire 1 6 sampler $end
$scope module i1 $end
$var wire 1 7 gnd $end
$var wire 1 8 vcc $end
$var wire 1 9 unknown $end
$var tri1 1 : devclrn $end
$var tri1 1 ; devpor $end
$var tri1 1 < devoe $end
$var wire 1 = OUT2~output_o $end
$var wire 1 > OUT4~output_o $end
$var wire 1 ? OUT8~output_o $end
$var wire 1 @ OUT16~output_o $end
$var wire 1 A OUT32~output_o $end
$var wire 1 B OUT64~output_o $end
$var wire 1 C OUT128~output_o $end
$var wire 1 D OUT256~output_o $end
$var wire 1 E OUT512~output_o $end
$var wire 1 F OUT1024~output_o $end
$var wire 1 G OUT2048~output_o $end
$var wire 1 H OUT4096~output_o $end
$var wire 1 I OUT8192~output_o $end
$var wire 1 J OUT16384~output_o $end
$var wire 1 K OUT32768~output_o $end
$var wire 1 L OUT65536~output_o $end
$var wire 1 M OUT131072~output_o $end
$var wire 1 N OUT262144~output_o $end
$var wire 1 O OUT524288~output_o $end
$var wire 1 P OUT1048576~output_o $end
$var wire 1 Q START~input_o $end
$var wire 1 R inst|inst2~0_combout $end
$var wire 1 S inst|inst2~q $end
$var wire 1 T inst1|inst2~0_combout $end
$var wire 1 U inst1|inst2~feeder_combout $end
$var wire 1 V inst1|inst2~q $end
$var wire 1 W inst3|inst2~0_combout $end
$var wire 1 X inst3|inst2~q $end
$var wire 1 Y inst2|inst2~0_combout $end
$var wire 1 Z inst2|inst2~feeder_combout $end
$var wire 1 [ inst2|inst2~q $end
$var wire 1 \ inst4|inst2~0_combout $end
$var wire 1 ] inst4|inst2~feeder_combout $end
$var wire 1 ^ inst4|inst2~q $end
$var wire 1 _ inst5|inst2~0_combout $end
$var wire 1 ` inst5|inst2~q $end
$var wire 1 a inst6|inst2~0_combout $end
$var wire 1 b inst6|inst2~feeder_combout $end
$var wire 1 c inst6|inst2~q $end
$var wire 1 d inst7|inst2~0_combout $end
$var wire 1 e inst7|inst2~q $end
$var wire 1 f inst8|inst2~0_combout $end
$var wire 1 g inst8|inst2~feeder_combout $end
$var wire 1 h inst8|inst2~q $end
$var wire 1 i inst9|inst2~0_combout $end
$var wire 1 j inst9|inst2~feeder_combout $end
$var wire 1 k inst9|inst2~q $end
$var wire 1 l inst10|inst2~0_combout $end
$var wire 1 m inst10|inst2~feeder_combout $end
$var wire 1 n inst10|inst2~q $end
$var wire 1 o inst11|inst2~0_combout $end
$var wire 1 p inst11|inst2~q $end
$var wire 1 q inst12|inst2~0_combout $end
$var wire 1 r inst12|inst2~feeder_combout $end
$var wire 1 s inst12|inst2~q $end
$var wire 1 t inst13|inst2~0_combout $end
$var wire 1 u inst13|inst2~q $end
$var wire 1 v inst14|inst2~0_combout $end
$var wire 1 w inst14|inst2~feeder_combout $end
$var wire 1 x inst14|inst2~q $end
$var wire 1 y inst15|inst2~0_combout $end
$var wire 1 z inst15|inst2~feeder_combout $end
$var wire 1 { inst15|inst2~q $end
$var wire 1 | inst16|inst2~0_combout $end
$var wire 1 } inst16|inst2~feeder_combout $end
$var wire 1 ~ inst16|inst2~q $end
$var wire 1 !! inst17|inst2~0_combout $end
$var wire 1 "! inst17|inst2~q $end
$var wire 1 #! inst18|inst2~0_combout $end
$var wire 1 $! inst18|inst2~feeder_combout $end
$var wire 1 %! inst18|inst2~q $end
$var wire 1 &! inst19|inst2~0_combout $end
$var wire 1 '! inst19|inst2~q $end
$upscope $end
$upscope $end
$enddefinitions $end
#0
$dumpvars
0!
0"
0#
0$
0%
0&
0'
0(
0)
0*
0+
0,
0-
0.
0/
00
01
02
03
04
05
x6
07
18
x9
1:
1;
1<
0=
0>
0?
0@
0A
0B
0C
0D
0E
0F
0G
0H
0I
0J
0K
0L
0M
0N
0O
0P
0Q
1R
0S
1T
1U
0V
1W
0X
1Y
1Z
0[
1\
1]
0^
1_
0`
1a
1b
0c
1d
0e
1f
1g
0h
1i
1j
0k
1l
1m
0n
1o
0p
1q
1r
0s
1t
0u
1v
1w
0x
1y
1z
0{
1|
1}
0~
1!!
0"!
1#!
1$!
0%!
1&!
0'!
$end
#10000
1!
1Q
06
#20000
0!
0Q
16
1S
0R
1=
1"
#30000
1!
1Q
06
#40000
0!
0Q
16
0S
1R
0=
0"
1V
0T
1>
1#
0U
#50000
1!
1Q
06
#60000
0!
0Q
16
1S
0R
1=
1"
#70000
1!
1Q
06
#80000
0!
0Q
16
0S
1R
0=
0"
0V
1T
0>
0#
1U
1X
0W
1?
1$
#90000
1!
1Q
06
#100000
0!
0Q
16
1S
0R
1=
1"
#110000
1!
1Q
06
#120000
0!
0Q
16
0S
1R
0=
0"
1V
0T
1>
1#
0U
#130000
1!
1Q
06
#140000
0!
0Q
16
1S
0R
1=
1"
#150000
1!
1Q
06
#160000
0!
0Q
16
0S
1R
0=
0"
0V
1T
0>
0#
1U
0X
1W
0?
0$
1[
0Y
1@
1%
0Z
#170000
1!
1Q
06
#180000
0!
0Q
16
1S
0R
1=
1"
#190000
1!
1Q
06
#200000
0!
0Q
16
0S
1R
0=
0"
1V
0T
1>
1#
0U
#210000
1!
1Q
06
#220000
0!
0Q
16
1S
0R
1=
1"
#230000
1!
1Q
06
#240000
0!
0Q
16
0S
1R
0=
0"
0V
1T
0>
0#
1U
1X
0W
1?
1$
#250000
1!
1Q
06
#260000
0!
0Q
16
1S
0R
1=
1"
#270000
1!
1Q
06
#280000
0!
0Q
16
0S
1R
0=
0"
1V
0T
1>
1#
0U
#290000
1!
1Q
06
#300000
0!
0Q
16
1S
0R
1=
1"
#310000
1!
1Q
06
#320000
0!
0Q
16
0S
1R
0=
0"
0V
1T
0>
0#
1U
0X
1W
0?
0$
0[
1Y
0@
0%
1Z
1^
0\
1A
1&
0]
#330000
1!
1Q
06
#340000
0!
0Q
16
1S
0R
1=
1"
#350000
1!
1Q
06
#360000
0!
0Q
16
0S
1R
0=
0"
1V
0T
1>
1#
0U
#370000
1!
1Q
06
#380000
0!
0Q
16
1S
0R
1=
1"
#390000
1!
1Q
06
#400000
0!
0Q
16
0S
1R
0=
0"
0V
1T
0>
0#
1U
1X
0W
1?
1$
#410000
1!
1Q
06
#420000
0!
0Q
16
1S
0R
1=
1"
#430000
1!
1Q
06
#440000
0!
0Q
16
0S
1R
0=
0"
1V
0T
1>
1#
0U
#450000
1!
1Q
06
#460000
0!
0Q
16
1S
0R
1=
1"
#470000
1!
1Q
06
#480000
0!
0Q
16
0S
1R
0=
0"
0V
1T
0>
0#
1U
0X
1W
0?
0$
1[
0Y
1@
1%
0Z
#490000
1!
1Q
06
#500000
0!
0Q
16
1S
0R
1=
1"
#510000
1!
1Q
06
#520000
0!
0Q
16
0S
1R
0=
0"
1V
0T
1>
1#
0U
#530000
1!
1Q
06
#540000
0!
0Q
16
1S
0R
1=
1"
#550000
1!
1Q
06
#560000
0!
0Q
16
0S
1R
0=
0"
0V
1T
0>
0#
1U
1X
0W
1?
1$
#570000
1!
1Q
06
#580000
0!
0Q
16
1S
0R
1=
1"
#590000
1!
1Q
06
#600000
0!
0Q
16
0S
1R
0=
0"
1V
0T
1>
1#
0U
#610000
1!
1Q
06
#620000
0!
0Q
16
1S
0R
1=
1"
#630000
1!
1Q
06
#640000
0!
0Q
16
0S
1R
0=
0"
0V
1T
0>
0#
1U
0X
1W
0?
0$
0[
1Y
0@
0%
1Z
0^
1\
0A
0&
1]
1`
0_
1B
1'
#650000
1!
1Q
06
#660000
0!
0Q
16
1S
0R
1=
1"
#670000
1!
1Q
06
#680000
0!
0Q
16
0S
1R
0=
0"
1V
0T
1>
1#
0U
#690000
1!
1Q
06
#700000
0!
0Q
16
1S
0R
1=
1"
#710000
1!
1Q
06
#720000
0!
0Q
16
0S
1R
0=
0"
0V
1T
0>
0#
1U
1X
0W
1?
1$
#730000
1!
1Q
06
#740000
0!
0Q
16
1S
0R
1=
1"
#750000
1!
1Q
06
#760000
0!
0Q
16
0S
1R
0=
0"
1V
0T
1>
1#
0U
#770000
1!
1Q
06
#780000
0!
0Q
16
1S
0R
1=
1"
#790000
1!
1Q
06
#800000
0!
0Q
16
0S
1R
0=
0"
0V
1T
0>
0#
1U
0X
1W
0?
0$
1[
0Y
1@
1%
0Z
#810000
1!
1Q
06
#820000
0!
0Q
16
1S
0R
1=
1"
#830000
1!
1Q
06
#840000
0!
0Q
16
0S
1R
0=
0"
1V
0T
1>
1#
0U
#850000
1!
1Q
06
#860000
0!
0Q
16
1S
0R
1=
1"
#870000
1!
1Q
06
#880000
0!
0Q
16
0S
1R
0=
0"
0V
1T
0>
0#
1U
1X
0W
1?
1$
#890000
1!
1Q
06
#900000
0!
0Q
16
1S
0R
1=
1"
#910000
1!
1Q
06
#920000
0!
0Q
16
0S
1R
0=
0"
1V
0T
1>
1#
0U
#930000
1!
1Q
06
#940000
0!
0Q
16
1S
0R
1=
1"
#950000
1!
1Q
06
#960000
0!
0Q
16
0S
1R
0=
0"
0V
1T
0>
0#
1U
0X
1W
0?
0$
0[
1Y
0@
0%
1Z
1^
0\
1A
1&
0]
#970000
1!
1Q
06
#980000
0!
0Q
16
1S
0R
1=
1"
#990000
1!
1Q
06
