hw1/hw_circuit/simulation/qsim/hw_circuit.msim.vcd
$comment
	File created using the following command:
		vcd file hw_circuit.msim.vcd -direction
$end
$date
	Tue Mar 21 14:12:00 2023
$end
$version
	ModelSim Version 10.1d
$end
$timescale
	1ps
$end
$scope module counter_vlg_vec_tst $end
$var reg 1 ! START $end
$var wire 1 " A $end
$var wire 1 # B $end
$var wire 1 $ C $end
$var wire 1 % D $end
$var wire 1 & E $end
$var wire 1 ' F $end
$var wire 1 ( G $end
$var wire 1 ) sampler $end
$scope module i1 $end
$var wire 1 * gnd $end
$var wire 1 + vcc $end
$var wire 1 , unknown $end
$var tri1 1 - devclrn $end
$var tri1 1 . devpor $end
$var tri1 1 / devoe $end
$var wire 1 0 START~input_o $end
$var wire 1 1 A~output_o $end
$var wire 1 2 B~output_o $end
$var wire 1 3 C~output_o $end
$var wire 1 4 D~output_o $end
$var wire 1 5 E~output_o $end
$var wire 1 6 F~output_o $end
$var wire 1 7 G~output_o $end
$var wire 1 8 inst|inst2~0_combout $end
$var wire 1 9 inst|inst~0_combout $end
$var wire 1 : inst|inst~q $end
$var wire 1 ; inst|inst25~combout $end
$var wire 1 < inst|inst2~q $end
$var wire 1 = inst|inst1~0_combout $end
$var wire 1 > inst|inst1~q $end
$var wire 1 ? inst2|inst|inst17~0_combout $end
$var wire 1 @ inst2|inst2|inst7~combout $end
$var wire 1 A inst2|inst3|inst44~0_combout $end
$var wire 1 B inst1|inst2~0_combout $end
$var wire 1 C inst2|inst5|inst44~0_combout $end
$var wire 1 D inst2|inst6|inst44~0_combout $end
$upscope $end
$upscope $end
$enddefinitions $end
#0
$dumpvars
0!
1"
1#
0$
1%
1&
0'
1(
x)
0*
1+
x,
1-
1.
1/
00
11
12
03
14
15
06
17
18
19
0:
0;
0<
1=
0>
1?
0@
0A
0B
1C
1D
$end
#20000
1!
10
0)
#40000
0!
00
1)
1<
0C
08
0D
1@
16
07
13
1'
0(
1$
#60000
1!
10
0)
#80000
0!
00
1)
0<
1C
18
1D
0@
06
17
03
0'
1(
0$
1>
0C
1A
0=
0D
1@
16
04
07
13
1'
0%
0(
1$
#100000
1!
10
0)
#120000
0!
00
1)
1<
1C
0A
08
1D
0@
06
14
17
03
0'
1%
1(
0$
#140000
1!
10
0)
#160000
0!
00
1)
0<
0C
1A
18
0D
1@
16
04
07
13
1'
0%
0(
1$
0>
1C
0A
1=
1D
0@
06
14
17
03
0'
1%
1(
0$
1:
1B
1A
09
0D
1@
05
04
07
13
0&
0%
0(
1$
#180000
1!
10
0)
#200000
0!
00
1)
1<
0C
08
1D
0?
16
17
01
1'
1(
0"
#220000
1!
10
0)
#240000
0!
00
1)
0<
1C
18
0D
1?
06
07
11
0'
0(
1"
1>
0C
0B
0A
0=
1;
16
15
14
1'
1&
1%
0:
0>
1C
0;
19
1=
1D
0@
06
17
03
0'
1(
0$
#260000
1!
10
0)
#280000
0!
00
1)
1<
0C
08
0D
1@
16
07
13
1'
0(
1$
#300000
1!
10
0)
#320000
0!
00
1)
0<
1C
18
1D
0@
06
17
03
0'
1(
0$
1>
0C
1A
0=
0D
1@
16
04
07
13
1'
0%
0(
1$
#340000
1!
10
0)
#360000
0!
00
1)
1<
1C
0A
08
1D
0@
06
14
17
03
0'
1%
1(
0$
#380000
1!
10
0)
#400000
0!
00
1)
0<
0C
1A
18
0D
1@
16
04
07
13
1'
0%
0(
1$
0>
1C
0A
1=
1D
0@
06
14
17
03
0'
1%
1(
0$
1:
1B
1A
09
0D
1@
05
04
07
13
0&
0%
0(
1$
#420000
1!
10
0)
#440000
0!
00
1)
1<
0C
08
1D
0?
16
17
01
1'
1(
0"
#460000
1!
10
0)
#480000
0!
00
1)
0<
1C
18
0D
1?
06
07
11
0'
0(
1"
1>
0C
0B
0A
0=
1;
16
15
14
1'
1&
1%
0:
0>
1C
0;
19
1=
1D
0@
06
17
03
0'
1(
0$
#500000
1!
10
0)
#520000
0!
00
1)
1<
0C
08
0D
1@
16
07
13
1'
0(
1$
#540000
1!
10
0)
#560000
0!
00
1)
0<
1C
18
1D
0@
06
17
03
0'
1(
0$
1>
0C
1A
0=
0D
1@
16
04
07
13
1'
0%
0(
1$
#580000
1!
10
0)
#600000
0!
00
1)
1<
1C
0A
08
1D
0@
06
14
17
03
0'
1%
1(
0$
#620000
1!
10
0)
#640000
0!
00
1)
0<
0C
1A
18
0D
1@
16
04
07
13
1'
0%
0(
1$
0>
1C
0A
1=
1D
0@
06
14
17
03
0'
1%
1(
0$
1:
1B
1A
09
0D
1@
05
04
07
13
0&
0%
0(
1$
#660000
1!
10
0)
#680000
0!
00
1)
1<
0C
08
1D
0?
16
17
01
1'
1(
0"
#700000
1!
10
0)
#720000
0!
00
1)
0<
1C
18
0D
1?
06
07
11
0'
0(
1"
1>
0C
0B
0A
0=
1;
16
15
14
1'
1&
1%
0:
0>
1C
0;
19
1=
1D
0@
06
17
03
0'
1(
0$
#740000
1!
10
0)
#760000
0!
00
1)
1<
0C
08
0D
1@
16
07
13
1'
0(
1$
#780000
1!
10
0)
#800000
0!
00
1)
0<
1C
18
1D
0@
06
17
03
0'
1(
0$
1>
0C
1A
0=
0D
1@
16
04
07
13
1'
0%
0(
1$
#820000
1!
10
0)
#840000
0!
00
1)
1<
1C
0A
08
1D
0@
06
14
17
03
0'
1%
1(
0$
#860000
1!
10
0)
#880000
0!
00
1)
0<
0C
1A
18
0D
1@
16
04
07
13
1'
0%
0(
1$
0>
1C
0A
1=
1D
0@
06
14
17
03
0'
1%
1(
0$
1:
1B
1A
09
0D
1@
05
04
07
13
0&
0%
0(
1$
#900000
1!
10
0)
#920000
0!
00
1)
1<
0C
08
1D
0?
16
17
01
1'
1(
0"
#940000
1!
10
0)
#960000
0!
00
1)
0<
1C
18
0D
1?
06
07
11
0'
0(
1"
1>
0C
0B
0A
0=
1;
16
15
14
1'
1&
1%
0:
0>
1C
0;
19
1=
1D
0@
06
17
03
0'
1(
0$
#980000
1!
10
0)
